[
  "-----***----------+-***-----|            ",
  "|B                |B        |S           ",
  "|                 *         |            ",
  "|                 *         |            ",
  "|                 *         |            ",
  "|                 |         |            ",
  "|                 |         |            ",
  "|                 |         |            ",
  "|                 |         |............",
  "*                 |         |............",
  "*                 |         |............",
  "*                 |         |............",
  "|                 |         |............",
  "|                 |         |O           ",
  "|                 |         |            ",
  "|                 |         |            ",
  "|                 |-***------            ",
  "*                 |B        |            ",
  "*                 *         |            ",
  "*                 *         |            ",
  "|                 *         |            ",
  "|                 |         |            ",
  "|-------------***-+         |            ",
  "|B                |         |            ",
  "|                 *         |            ",
  "|                 *         |            ",
  "|                 *         |            ",
  "|                 |         |            ",
  "|                 |         |............",
  "|                 |         |............",
  "|                 |         |............",
  "|                 |         |............",
  "|                 |         |............",
  "*                 |         |S           ",
  "*                 |         |            ",
  "*                 |         |            ",
  "|                 |         |            ",
  "|                 |         |            ",
  "|                 |         |            ",
  "|                 |         |            ",
  "+----***------------****----+            "
]