[
  "        .....               .....        ",
  " S      .....S              .....S       ",
  "        .....               .....        ",
  "        .....               .....        ",
  "        .....               .....        ",
  "        .....               .....        ",
  "        .....               .....        ",
  "        .....               .....        ",
  "        .....               .............",
  "        .....               .............",
  "        .....               .............",
  "        .....               .............",
  "+-------------+-------------+............",
  "|S            |B            |S           ",
  "|             |             |            ",
  "|             |             |            ",
  "|             |             |            ",
  "|             |             |            ",
  "|             |             |            ",
  "*             |             |            ",
  "*             |             |            ",
  "*             *             |            ",
  "|             *             |            ",
  "|             *             |            ",
  "|             |             |            ",
  "|             |             |            ",
  "|             |             |            ",
  "|             |             |            ",
  "+-------------+-------------+............",
  " S      .....O              .............",
  "        .....               .............",
  "        .....               .............",
  "        .....               .............",
  "        .....               .....S       ",
  "        .....               .....        ",
  "        .....               .....        ",
  "        .....               .....        ",
  "        .....               .....        ",
  "        .....               .....        ",
  "        .....               .....        ",
  "        .....               .....        "
]